dump.vcd
$date
Sun Sep 21 10:31:23 2025
$end
$version
Riviera-PRO Version 2023.04.112.8911
$end
$timescale
1 ns
$end

$scope module tb $end

$scope module vif $end
$var reg 1 ! pclk $end
$var reg 1 " presetn $end
$var reg 32 # paddr [31:0] $end
$var reg 1 $ psel $end
$var reg 1 % penable $end
$var reg 8 & pwdata [7:0] $end
$var reg 1 ' pwrite $end
$var reg 8 ( prdata [7:0] $end
$var reg 1 ) pready $end
$var reg 1 * pslverr $end
$upscope $end


$scope module dut $end
$var wire 1 + pclk $end
$var wire 1 , presetn $end
$var wire 32 - paddr [31:0] $end
$var wire 1 . psel $end
$var wire 1 / penable $end
$var wire 8 0 pwdata [7:0] $end
$var wire 1 1 pwrite $end
$var wire 1 2 pslverr $end
$var reg 8 3 prdata [7:0] $end
$var reg 1 4 pready $end
$var reg 2 5 state [1:0] $end
$var reg 2 6 nstate [1:0] $end
$var reg 1 7 addr_err $end
$var reg 1 8 addv_err $end
$var reg 1 9 data_err $end
$var reg 1 : av_t $end
$var reg 1 ; dv_t $end
$var parameter 2 < IDLE [1:0] $end
$var parameter 2 = WRITE [1:0] $end
$var parameter 2 > READ [1:0] $end
$upscope $end

$upscope $end

$enddefinitions $end
$dumpvars
0!
0"
b0 #
0$
0%
b0 &
0'
b0 (
0)
0*
0+
0,
b0 -
0.
0/
b0 0
01
02
b0 3
04
b0 5
b0 6
07
08
09
0:
0;
b0 <
b1 =
b10 >
$end
#10
1!
1+
#20
0!
0+
#30
1!
1+
#40
0!
0+
#50
1!
1+
#60
0!
0+
#70
1!
1+
#80
0!
0+
#90
1!
1+
1"
1,
#100
0!
0+
#110
1!
1+
1$
b10101100 &
1'
11
b10101100 0
1.
b1 6
#120
0!
0+
#130
1!
1+
1%
b1 5
1/
14
b0 6
1)
#140
0!
0+
#150
1!
1+
0$
0%
0'
b0 5
01
0/
0.
04
0)
#160
0!
0+
#170
1!
1+
#180
0!
0+
#190
1!
1+
1$
b0 &
b1111 #
b1111 -
b0 0
1.
b10 6
#200
0!
0+
#210
1!
1+
1%
b10 5
1/
14
bx 3
b0 6
1)
bx (
#220
0!
0+
#230
1!
1+
0$
0%
b0 5
0/
0.
b0 3
04
b0 (
0)
#240
0!
0+
#250
1!
1+
#260
0!
0+
#270
1!
1+
1$
b1011 #
b1011 -
1.
b10 6
#280
0!
0+
#290
1!
1+
1%
b10 5
1/
14
bx 3
b0 6
1)
bx (
#300
0!
0+
#310
1!
1+
0$
0%
b0 5
0/
0.
b0 3
04
b0 (
0)
#320
0!
0+
#330
1!
1+
#340
0!
0+
#350
1!
1+
1$
b100011 &
b1010 #
1'
11
b1010 -
b100011 0
1.
b1 6
#360
0!
0+
#370
1!
1+
1%
b1 5
1/
14
b0 6
1)
#380
0!
0+
#390
1!
1+
0$
0%
0'
b0 5
01
0/
0.
04
0)
#400
0!
0+
#410
1!
1+
#420
0!
0+
#430
1!
1+
1$
b0 &
b1101 #
b1101 -
b0 0
1.
b10 6
#440
0!
0+
#450
1!
1+
1%
b10 5
1/
14
bx 3
b0 6
1)
bx (
#460
0!
0+
#470
1!
1+
0$
0%
b0 5
0/
0.
b0 3
04
b0 (
0)
#480
0!
0+
#490
1!
1+
#500
0!
0+
#510
1!
1+
1$
b1011001 &
1'
11
b1011001 0
1.
b1 6
#520
0!
0+
#530
1!
1+
1%
b1 5
1/
14
b0 6
1)
#540
0!
0+
#550
1!
1+
0$
0%
0'
b0 5
01
0/
0.
04
0)
#560
0!
0+
#570
1!
1+
#580
0!
0+
#590
1!
1+
1$
b11001000 &
b1011 #
1'
11
b1011 -
b11001000 0
1.
b1 6
#600
0!
0+
#610
1!
1+
1%
b1 5
1/
14
b0 6
1)
#620
0!
0+
#630
1!
1+
0$
0%
0'
b0 5
01
0/
0.
04
0)
#640
0!
0+
#650
1!
1+
#660
0!
0+
#670
1!
1+
1$
b0 &
b100 #
b100 -
b0 0
1.
b10 6
#680
0!
0+
#690
1!
1+
1%
b10 5
1/
14
bx 3
b0 6
1)
bx (
#700
0!
0+
#710
1!
1+
0$
0%
b0 5
0/
0.
b0 3
04
b0 (
0)
#720
0!
0+
#730
1!
1+
#740
0!
0+
#750
1!
1+
1$
b1101 #
b1101 -
1.
b10 6
#760
0!
0+
#770
1!
1+
1%
b10 5
1/
14
b1011001 3
b0 6
1)
b1011001 (
#780
0!
0+
#790
1!
1+
0$
0%
b0 5
0/
0.
b0 3
04
b0 (
0)
#800
0!
0+
#810
1!
1+
#820
0!
0+
#830
1!
1+
1$
b1111010 &
b10 #
1'
11
b10 -
b1111010 0
1.
b1 6
#840
0!
0+
#850
1!
1+
1%
b1 5
1/
14
b0 6
1)
#860
0!
0+
#870
1!
1+
0$
0%
0'
b0 5
01
0/
0.
04
0)
#880
0!
0+
#890
1!
1+
#900
0!
0+
#910
1!
1+
1$
b0 &
b1010 #
b1010 -
b0 0
1.
b10 6
#920
0!
0+
#930
1!
1+
1%
b10 5
1/
14
b100011 3
b0 6
1)
b100011 (
#940
0!
0+
#950
1!
1+
0$
0%
b0 5
0/
0.
b0 3
04
b0 (
0)
#960
0!
0+
#970
1!
1+
#980
0!
0+
#990
1!
1+
1$
b1111001 &
b1011 #
1'
11
b1011 -
b1111001 0
1.
b1 6
#1000
0!
0+
#1010
1!
1+
1%
b1 5
1/
14
b0 6
1)
#1020
0!
0+
#1030
1!
1+
0$
0%
0'
b0 5
01
0/
0.
04
0)
#1040
0!
0+
#1050
1!
1+
#1060
0!
0+
#1070
1!
1+
1$
b0 &
b0 #
b0 -
b0 0
1.
b10 6
#1080
0!
0+
#1090
1!
1+
1%
b10 5
1/
14
b10101100 3
b0 6
1)
b10101100 (
#1100
0!
0+
#1110
1!
1+
0$
0%
b0 5
0/
0.
b0 3
04
b0 (
0)
#1120
0!
0+
#1130
1!
1+
#1140
0!
0+
#1150
1!
1+
1$
b1001 &
b1 #
1'
11
b1 -
b1001 0
1.
b1 6
#1160
0!
0+
#1170
1!
1+
1%
b1 5
1/
14
b0 6
1)
#1180
0!
0+
#1190
1!
1+
0$
0%
0'
b0 5
01
0/
0.
04
0)
#1200
0!
0+
#1210
1!
1+
#1220
0!
0+
#1230
1!
1+
1$
b11001 &
b110 #
1'
11
b110 -
b11001 0
1.
b1 6
#1240
0!
0+
#1250
1!
1+
1%
b1 5
1/
14
b0 6
1)
#1260
0!
0+
#1270
1!
1+
0$
0%
0'
b0 5
01
0/
0.
04
0)
#1280
0!
0+
#1290
1!
1+
#1300
0!
0+
#1310
1!
1+
1$
b0 &
b0 #
b0 -
b0 0
1.
b10 6
#1320
0!
0+
#1330
1!
1+
1%
b10 5
1/
14
b10101100 3
b0 6
1)
b10101100 (
#1340
0!
0+
#1350
1!
1+
0$
0%
b0 5
0/
0.
b0 3
04
b0 (
0)
#1360
0!
0+
#1370
1!
1+
#1380
0!
0+
#1390
1!
1+
1$
b111 #
b111 -
1.
b10 6
#1400
0!
0+
#1410
1!
1+
1%
b10 5
1/
14
bx 3
b0 6
1)
bx (
#1420
0!
0+
#1430
1!
1+
0$
0%
b0 5
0/
0.
b0 3
04
b0 (
0)
#1440
0!
0+
#1450
1!
1+
#1460
0!
0+
#1470
1!
1+
1$
b1111110 &
b1111 #
1'
11
b1111 -
b1111110 0
1.
b1 6
#1480
0!
0+
#1490
1!
1+
1%
b1 5
1/
14
b0 6
1)
#1500
0!
0+
#1510
1!
1+
0$
0%
0'
b0 5
01
0/
0.
04
0)
#1520
0!
0+
#1530
1!
1+
#1540
0!
0+
#1550
1!
1+
1$
b101011 &
b110 #
1'
11
b110 -
b101011 0
1.
b1 6
#1560
0!
0+
#1570
1!
1+
1%
b1 5
1/
14
b0 6
1)
#1580
0!
0+
#1590
1!
1+
0$
0%
0'
b0 5
01
0/
0.
04
0)
#1600
0!
0+
#1610
1!
1+
#1620
0!
0+
#1630
1!
1+
1$
b0 &
b1011 #
b1011 -
b0 0
1.
b10 6
#1640
0!
0+
#1650
1!
1+
1%
b10 5
1/
14
b1111001 3
b0 6
1)
b1111001 (
#1660
0!
0+
#1670
1!
1+
0$
0%
b0 5
0/
0.
b0 3
04
b0 (
0)
